*** Darwin 2x2 ***
Turn = 0.
  01
0 r.
1 ..

Turn = 1.
  01
0 .r
1 ..

Turn = 2.
  01
0 .r
1 ..

*** Darwin 2x2 ***
Turn = 0.
  01
0 r.
1 ..

Turn = 2.
  01
0 r.
1 ..

*** Darwin 2x2 ***
Turn = 0.
  01
0 r.
1 ..

Turn = 1.
  01
0 ..
1 r.

Turn = 2.
  01
0 ..
1 r.

Turn = 3.
  01
0 ..
1 r.

Turn = 4.
  01
0 ..
1 r.

*** Darwin 2x2 ***
Turn = 0.
  01
0 r.
1 ..

Turn = 3.
  01
0 .r
1 ..

*** Darwin 5x5 ***
Turn = 0.
  01234
0 f....
1 .....
2 .....
3 .....
4 ....f

Turn = 50.
  01234
0 f....
1 .....
2 .....
3 .....
4 ....f

Turn = 100.
  01234
0 f....
1 .....
2 .....
3 .....
4 ....f

*** Darwin 5x5 ***
Turn = 0.
  01234
0 f....
1 .....
2 .....
3 .....
4 ....f

Turn = 50.
  01234
0 f....
1 .....
2 .....
3 .....
4 ....f

Turn = 100.
  01234
0 f....
1 .....
2 .....
3 .....
4 ....f

*** Darwin 5x5 ***
Turn = 0.
  01234
0 f....
1 .....
2 .....
3 .....
4 ....r

Turn = 50.
  01234
0 .r...
1 ....r
2 .....
3 .....
4 .....

Turn = 100.
  01234
0 .....
1 ....r
2 .....
3 .....
4 .r...

*** Darwin 3x3 ***
Turn = 0.
  012
0 ...
1 ..h
2 .r.

Turn = 50.
  012
0 rr.
1 ...
2 ...

Turn = 100.
  012
0 r..
1 r..
2 ...

*** Darwin 3x3 ***
Turn = 0.
  012
0 ...
1 ..h
2 .r.

Turn = 3.
  012
0 ...
1 ...
2 .rr

Turn = 6.
  012
0 ...
1 r..
2 r..

Turn = 9.
  012
0 r..
1 ...
2 r..

*** Darwin 3x3 ***
Turn = 0.
  012
0 ...
1 ..t
2 ..r

Turn = 3.
  012
0 ...
1 ..t
2 ..t

Turn = 6.
  012
0 ...
1 ..t
2 ..t

Turn = 9.
  012
0 ...
1 ..t
2 ..t

*** Darwin 2x2 ***
Turn = 0.
  01
0 tt
1 tt

Turn = 1.
  01
0 tt
1 tt

*** Darwin 2x2 ***
Turn = 0.
  01
0 tt
1 rr

Turn = 1.
  01
0 tt
1 tt

Turn = 2.
  01
0 tt
1 tt

Turn = 3.
  01
0 tt
1 tt

*** Darwin 2x2 ***
Turn = 0.
  01
0 rr
1 tt

Turn = 1.
  01
0 rr
1 rr

Turn = 2.
  01
0 rr
1 rr

Turn = 3.
  01
0 rr
1 rr

*** Darwin 2x2 ***
Turn = 0.
  01
0 ff
1 rr

Turn = 1.
  01
0 ff
1 rr

Turn = 2.
  01
0 ff
1 rr

Turn = 3.
  01
0 rf
1 rr

Turn = 4.
  01
0 rf
1 rr

*** Darwin 7x7 ***
Turn = 0.
  0123456
0 t......
1 .fh....
2 ..f.h..
3 ..rf...
4 ...hfh.
5 ....rf.
6 .h.t..t

Turn = 2.
  0123456
0 t......
1 .fr....
2 ..r...h
3 ..rf...
4 .h..f.h
5 ...h.rt
6 ...t..t

Turn = 4.
  0123456
0 t......
1 .f.r...
2 .h.r..h
3 ..rr...
4 ....f.r
5 ...t.rr
6 ...t..t

Turn = 6.
  0123456
0 t......
1 .f...r.
2 .h...rr
3 .....rr
4 ....fr.
5 ..rt..r
6 ...t..r

Turn = 8.
  0123456
0 t......
1 .f...rr
2 .h....r
3 ....rrr
4 ....r..
5 ...t..r
6 ..rt..r

Turn = 10.
  0123456
0 t....rr
1 .f..r.r
2 .h.....
3 ...r...
4 ..r...r
5 ...t..r
6 r..tr..

Turn = 12.
  0123456
0 t...rrr
1 .f...r.
2 .h.....
3 .r.....
4 r...r..
5 r..t...
6 ...rr.r

Turn = 14.
  0123456
0 t...r.r
1 .f.r.r.
2 .h.....
3 r......
4 r.r....
5 .r.t...
6 ...ttt.

*** Darwin 7x7 ***
Turn = 0.
  0123456
0 t......
1 .fh....
2 ..f.h..
3 ..rf...
4 ...hfh.
5 ....rf.
6 .h.t..t

Turn = 3.
  0123456
0 t......
1 .fr....
2 ..r...h
3 .hrr...
4 ....f.r
5 ...h.rr
6 ...t..t

Turn = 6.
  0123456
0 t......
1 .f...r.
2 .h...rr
3 .....rr
4 ....fr.
5 ..rt..r
6 ...t..r

Turn = 9.
  0123456
0 t....rr
1 .f.....
2 .h..r.r
3 ....r..
4 ...r..r
5 ...t..r
6 .r.t.r.

Turn = 12.
  0123456
0 t...rrr
1 .f...r.
2 .h.....
3 .r.....
4 r...r..
5 r..t...
6 ...rr.r

Turn = 15.
  0123456
0 t....rr
1 .fr....
2 .h...r.
3 r......
4 rr.....
5 ..rt...
6 ...ttt.

*** Darwin 7x7 ***
Turn = 0.
  0123456
0 t......
1 .fh....
2 ..f.h..
3 ..rf...
4 ...hfh.
5 ....rf.
6 .h.t..t

Turn = 5.
  0123456
0 t......
1 .f..r..
2 .h..r.h
3 ....r.r
4 ..r.fr.
5 ...t..r
6 ...t..t

Turn = 10.
  0123456
0 t....rr
1 .f..r.r
2 .h.....
3 ...r...
4 ..r...r
5 ...t..r
6 r..tr..

Turn = 15.
  0123456
0 t....rr
1 .fr....
2 .h...r.
3 r......
4 rr.....
5 ..rt...
6 ...ttt.

*** Darwin 8x8 ***
Turn = 0.
  01234567
0 t.......
1 .fh.....
2 ..f.h...
3 ..rf....
4 ...hfh..
5 ....rf..
6 .h.t..t.
7 ........

Turn = 50.
  01234567
0 rr......
1 ........
2 ........
3 .r.r....
4 r.r.....
5 ..ttt...
6 ..tt..tt
7 ..tt....

Turn = 100.
  01234567
0 .r..r.r.
1 ..r.r...
2 ...rr...
3 ........
4 r..r.r..
5 ...r....
6 r..r....
7 .r.....r

Turn = 150.
  01234567
0 ....r..r
1 ...r...r
2 .r...r..
3 r.r.....
4 ..r.....
5 ...r..r.
6 ..r....r
7 ..r....r

*** Darwin 10x10 ***
Turn = 0.
  0123456789
0 t.........
1 .fh.......
2 ..f.h.....
3 ..rf......
4 ...hfh....
5 ....rf....
6 .h.t..t...
7 ..........
8 ..........
9 .........r

Turn = 2.
  0123456789
0 t.........
1 .fr.......
2 ..r...h...
3 ..rf......
4 .h..f..h..
5 ...h.rt...
6 ...t..t...
7 ..........
8 ..........
9 .........r

Turn = 4.
  0123456789
0 t.........
1 .rr.......
2 ...r....h.
3 rh.f..r...
4 ....f....h
5 ...t..r...
6 ...t..t...
7 ..........
8 ..........
9 .......r..

Turn = 6.
  0123456789
0 t.........
1 .r....r...
2 .rr..r...h
3 ...f......
4 r...f....h
5 ...t....r.
6 ...t..t...
7 ..........
8 ..........
9 .....r....

Turn = 8.
  0123456789
0 t.....r...
1 rr........
2 .......r.h
3 ...f......
4 ..r.f....h
5 ...t.....r
6 r..t..t...
7 ..........
8 ..........
9 ...r......

Turn = 10.
  0123456789
0 tr......r.
1 t.........
2 ........rr
3 ...f......
4 ....f....r
5 ...t.....r
6 ..tt..t...
7 ..........
8 r.........
9 .r........

Turn = 12.
  0123456789
0 tt.......r
1 t.......r.
2 ..........
3 ...f.....r
4 ....f...r.
5 ...t...r..
6 ..tt..t...
7 ..........
8 ..........
9 rr........

Turn = 14.
  0123456789
0 tt......r.
1 t.........
2 .........r
3 ...f.....r
4 ....f.r...
5 ...t.r....
6 ..tt..t...
7 ..........
8 ..........
9 rr........

*** Darwin 10x10 ***
Turn = 0.
  0123456789
0 t.........
1 .fh.......
2 ..f.h.....
3 ..rf......
4 ...hfh....
5 ....rf....
6 .h.t..t...
7 ..........
8 ........r.
9 .......r.r

Turn = 2.
  0123456789
0 t.........
1 .fr.......
2 ..r...h...
3 ..rf......
4 .h..f..h..
5 ...h.rt...
6 ...t..t.r.
7 ..........
8 ..........
9 ........rr

Turn = 4.
  0123456789
0 t.........
1 .rr.......
2 ...r....h.
3 rh.f..r...
4 ....f...rh
5 ...t..r...
6 ...t..t...
7 ..........
8 ..........
9 ........rr

Turn = 6.
  0123456789
0 trr.......
1 .h....r...
2 .....r..rh
3 ...f......
4 r...f....h
5 ...t....r.
6 ...t..t...
7 ..........
8 .........r
9 .......r..

Turn = 8.
  0123456789
0 rrr...r.r.
1 .h........
2 .......r.h
3 ...f......
4 ....f....h
5 ...t.....r
6 r..t..t..r
7 ..........
8 ..........
9 .....r....

Turn = 10.
  0123456789
0 rh..r....r
1 ..........
2 r.r.....rr
3 ...f......
4 ....f....r
5 ...t.....r
6 ...t..t.r.
7 ..........
8 r.........
9 ...r......

Turn = 12.
  0123456789
0 rhr.......
1 .........r
2 ..........
3 ...f....rr
4 r.r.f....r
5 ...t...r..
6 ...t..rr..
7 ..........
8 ..........
9 rr........

Turn = 14.
  0123456789
0 rrr.......
1 ..........
2 .........r
3 ...f.....r
4 ....f....r
5 ...t.rrrr.
6 r.tt......
7 ..........
8 rr........
9 ..........
