30

4 4
3
r 1 2 n
f 2 1 s
f 0 2 s
12 10

4 4
3
r 0 0 n
f 2 1 s
f 1 2 s
12 10

4 4
3
r 1 3 n
f 2 1 s
f 3 2 s
12 10

9 8
2
r 1 7 w
h 7 3 n
79 70

13 14
4
t 4 8 s
t 7 13 s
f 9 3 e
h 2 13 n
77 36

11 5
2
h 7 3 w
f 4 3 w
197 113

15 13
3
t 7 2 e
r 10 3 w
r 8 4 w
68 60

10 16
5
r 1 15 w
r 5 7 s
r 7 9 w
f 8 4 s
r 8 3 w
122 115

5 12
1
r 2 8 e
124 100

46 36
3
r 8 13 s
f 34 6 w
f 10 8 s
161 100

16 8
5
r 10 4 e
r 9 7 s
r 4 7 n
r 13 4 w
f 5 4 w
59 50

7 18
6
r 3 3 n
f 1 8 n
f 5 8 e
t 6 7 n
t 2 14 s
r 2 7 e
137 120

12 8
4
h 4 7 w
h 6 5 s
f 10 5 s
f 3 4 n
40 20

3 5
4
r 0 4 n
h 2 3 s
t 0 2 s
h 1 3 e
105 50

2 10
5
f 0 7 e
h 0 8 n
t 1 6 w
h 1 2 s
f 1 3 w
177 100

7 15
5
r 4 8 s
r 1 5 s
r 6 1 e
r 2 1 e
r 2 5 n
112 50

7 19
5
t 5 12 s
f 5 17 s
r 3 12 n
f 2 18 e
r 3 3 w
88 40

10 12
3
r 3 3 e
f 4 8 n
f 7 6 n
143 70

7 11
1
r 6 9 s
96 59

8 14
5
h 2 11 w
f 7 4 n
r 1 7 e
r 7 12 n
t 3 8 s
100 97

10 7
6
f 7 6 n
t 1 3 s
f 6 6 s
h 5 2 n
t 9 1 w
t 7 4 n
16 8

13 8
4
r 1 7 n
f 9 4 s
t 1 0 w
h 8 7 e
124 111

6 10
4
h 5 6 e
t 5 4 n
t 4 7 s
f 1 8 n
125 131

5 12
3
h 1 10 s
r 2 10 s
h 4 7 n
107 100

5 10
5
r 1 4 n
r 3 9 s
f 2 8 n
r 3 2 n
r 3 7 s
117 50

8 8
6
r 7 0 s
h 7 7 n
r 7 2 n
t 2 2 e
r 7 7 w
r 2 3 w
152 143

9 10
5
r 1 1 s
r 8 8 w
f 6 7 w
r 7 5 s
f 2 3 s
173 108

8 6
2
h 6 2 s
h 6 3 w
173 100

6 12
3
r 1 7 s
t 4 1 e
f 2 7 s
89 69

9 3
4
h 4 0 w
t 3 2 n
h 3 2 s
h 6 2 w
119 100
