26

10 3
9
h 8 1 w
t 5 1 s
h 2 1 n
t 0 0 s
h 1 0 e
t 4 2 w
t 9 2 s
t 1 1 w
r 8 0 n
5 2

5 8
6
f 3 0 e
t 1 3 s
f 4 1 n
h 4 5 s
f 3 0 n
h 4 1 w
8 2

2 1
4
f 0 0 w
h 1 0 w
r 1 0 s
r 0 0 w
6 1

5 5
1
t 1 1 n
3 10

10 2
2
r 4 1 n
h 5 1 n
8 4

6 5
8
f 1 3 s
h 2 1 e
t 4 0 w
t 1 4 n
f 2 3 w
f 2 0 n
h 3 0 w
f 2 0 n
13 7

2 4
9
h 0 1 s
r 1 2 s
h 0 0 w
t 1 1 s
r 0 3 e
t 1 0 e
h 0 3 e
h 0 1 s
f 1 3 n
10 8

7 1
10
f 4 0 n
r 2 0 w
r 6 0 s
f 1 0 w
h 5 0 e
t 1 0 w
h 6 0 e
t 4 0 w
t 1 0 w
r 5 0 n
8 7

3 2
9
r 1 1 s
r 2 1 e
f 1 1 w
h 2 1 e
h 0 1 e
f 1 0 s
t 0 0 e
h 1 1 w
r 1 1 e
8 2

1 8
10
h 0 1 e
t 0 7 s
r 0 6 e
r 0 2 n
f 0 3 e
f 0 4 w
f 0 1 e
r 0 1 w
f 0 4 w
f 0 2 n
7 9

10 2
2
t 4 0 s
r 4 1 s
7 8

2 8
7
f 0 5 n
t 0 2 n
h 0 7 s
h 0 6 w
f 1 3 s
h 0 5 n
f 0 0 s
4 6

10 6
6
h 7 4 w
f 9 0 w
h 1 2 n
t 6 2 n
h 0 5 s
r 9 1 e
8 7

7 4
6
t 2 0 s
f 1 2 n
f 0 2 e
h 0 0 e
h 6 0 s
f 5 0 e
10 7

7 4
9
f 2 2 s
t 4 0 s
h 0 1 s
r 3 0 n
h 6 2 n
f 6 0 n
f 1 2 w
r 6 1 e
t 2 1 n
4 5

4 5
8
t 3 0 n
h 3 2 s
t 0 4 w
f 3 3 s
h 1 4 w
f 3 2 n
h 3 2 n
f 0 2 e
4 7

3 6
7
t 1 0 s
h 2 3 e
r 1 1 e
t 2 4 w
t 2 1 n
h 0 4 s
f 0 2 s
12 2

5 2
8
f 1 0 e
f 3 0 s
r 3 0 n
t 0 1 n
t 1 0 s
t 3 0 w
h 1 1 e
f 1 0 s
7 5

9 7
2
h 2 0 n
r 2 6 n
5 1

7 1
1
t 4 0 e
2 10

3 5
9
t 2 4 w
f 1 2 s
f 2 2 e
t 0 2 e
f 2 0 w
r 2 1 s
r 0 4 e
f 0 4 e
t 2 1 n
4 1

9 6
8
h 1 4 w
r 0 2 w
t 8 4 n
r 5 4 s
h 5 3 s
f 2 1 s
t 6 5 s
f 6 3 s
1 3

3 6
4
t 0 2 s
r 1 4 w
r 2 5 e
t 0 3 e
3 6

10 8
7
f 1 7 e
f 1 5 e
f 0 5 e
t 6 5 w
f 9 0 n
f 5 0 s
r 2 3 w
3 7

9 6
2
h 1 5 s
t 3 1 s
1 6

7 6
2
h 4 4 w
h 4 1 n
15 2
