*** Darwin 10x4 ***
Turn = 0.
  0123
0 h...
1 ....
2 .h..
3 ....
4 .f..
5 ....
6 ....
7 ....
8 ..h.
9 ....

Turn = 1.
  0123
0 h...
1 ....
2 ..h.
3 ....
4 .f..
5 ....
6 ....
7 ..h.
8 ....
9 ....

*** Darwin 9x6 ***
Turn = 0.
  012345
0 ......
1 ......
2 ...tr.
3 ......
4 ......
5 ...hf.
6 h.....
7 ......
8 ......

Turn = 1.
  012345
0 ......
1 ....r.
2 ...t..
3 ......
4 ......
5 ....f.
6 .h.h..
7 ......
8 ......

Turn = 2.
  012345
0 ....r.
1 ......
2 ...t..
3 ......
4 ......
5 ....f.
6 ..h...
7 ...h..
8 ......

Turn = 3.
  012345
0 ....r.
1 ......
2 ...t..
3 ......
4 ......
5 ....f.
6 ...h..
7 ......
8 ...h..

Turn = 4.
  012345
0 .....r
1 ......
2 ...t..
3 ......
4 ......
5 ....f.
6 ....h.
7 ......
8 ...h..

Turn = 5.
  012345
0 .....r
1 ......
2 ...t..
3 ......
4 ......
5 ....f.
6 .....h
7 ......
8 ...h..

*** Darwin 4x9 ***
Turn = 0.
  012345678
0 ..t..rr..
1 .r.......
2 fh.......
3 .........

Turn = 1.
  012345678
0 ..t.rr...
1 r........
2 f.h......
3 .........

Turn = 2.
  012345678
0 ..trr....
1 r........
2 f..h.....
3 .........

Turn = 3.
  012345678
0 r.rrr....
1 .........
2 f...h....
3 .........

*** Darwin 2x2 ***
Turn = 0.
  01
0 .t
1 .t

Turn = 1.
  01
0 .t
1 .t

Turn = 2.
  01
0 .t
1 .t

Turn = 3.
  01
0 .t
1 .t

Turn = 4.
  01
0 .t
1 .t

*** Darwin 2x5 ***
Turn = 0.
  01234
0 ....f
1 .....

Turn = 1.
  01234
0 ....f
1 .....

Turn = 2.
  01234
0 ....f
1 .....

Turn = 3.
  01234
0 ....f
1 .....

Turn = 4.
  01234
0 ....f
1 .....

Turn = 5.
  01234
0 ....f
1 .....

*** Darwin 5x3 ***
Turn = 0.
  012
0 .hr
1 f..
2 .h.
3 ..h
4 f..

*** Darwin 2x9 ***
Turn = 0.
  012345678
0 .t.......
1 .f.......

Turn = 3.
  012345678
0 .t.......
1 .t.......

*** Darwin 5x2 ***
Turn = 0.
  01
0 h.
1 ..
2 .f
3 ..
4 ..

Turn = 3.
  01
0 h.
1 ..
2 .f
3 ..
4 ..

*** Darwin 6x3 ***
Turn = 0.
  012
0 ...
1 ...
2 ft.
3 f..
4 ..h
5 ..t

Turn = 1.
  012
0 ...
1 ...
2 ft.
3 f..
4 ..h
5 ..t

Turn = 2.
  012
0 ...
1 ...
2 ft.
3 f..
4 ..h
5 ..t

Turn = 3.
  012
0 ...
1 ...
2 tt.
3 f..
4 ..t
5 ..t

Turn = 4.
  012
0 ...
1 ...
2 tt.
3 t..
4 ..t
5 ..t

*** Darwin 10x2 ***
Turn = 0.
  01
0 .t
1 .r
2 fh
3 r.
4 ..
5 ..
6 ..
7 ..
8 .h
9 ..

Turn = 1.
  01
0 .t
1 .r
2 rr
3 .r
4 ..
5 ..
6 ..
7 ..
8 ..
9 .h

Turn = 2.
  01
0 .t
1 .r
2 rr
3 .r
4 ..
5 ..
6 ..
7 ..
8 ..
9 .h

Turn = 3.
  01
0 .t
1 .r
2 .r
3 r.
4 .r
5 ..
6 ..
7 ..
8 ..
9 .h

Turn = 4.
  01
0 .t
1 .t
2 .t
3 ..
4 r.
5 .r
6 ..
7 ..
8 ..
9 .h

Turn = 5.
  01
0 .t
1 .t
2 .t
3 ..
4 ..
5 r.
6 .r
7 ..
8 ..
9 .h

*** Darwin 3x2 ***
Turn = 0.
  01
0 ft
1 .h
2 ft

Turn = 1.
  01
0 ft
1 .t
2 ft

Turn = 2.
  01
0 ft
1 .t
2 tt

Turn = 3.
  01
0 ft
1 .t
2 tt

Turn = 4.
  01
0 ft
1 .t
2 tt

Turn = 5.
  01
0 tt
1 .t
2 tt

Turn = 6.
  01
0 tt
1 .t
2 tt

Turn = 7.
  01
0 tt
1 .t
2 tt

Turn = 8.
  01
0 tt
1 .t
2 tt

Turn = 9.
  01
0 tt
1 .t
2 tt

Turn = 10.
  01
0 tt
1 .t
2 tt

*** Darwin 5x12 ***
Turn = 0.
  012345678901
0 tf.r....t...
1 f...........
2 ..r.f.......
3 ............
4 .....r.f....

Turn = 2.
  012345678901
0 tf......t...
1 f...........
2 ...rf.......
3 ............
4 ..r...rr....

Turn = 4.
  012345678901
0 tf......t...
1 t...........
2 ....f.......
3 .......r....
4 ..rr..r.....

*** Darwin 5x5 ***
Turn = 0.
  01234
0 .rh..
1 t..t.
2 ....r
3 .....
4 .....

Turn = 3.
  01234
0 th...
1 t..t.
2 .....
3 .....
4 ....r

*** Darwin 8x3 ***
Turn = 0.
  012
0 ..f
1 .hr
2 ...
3 ...
4 ...
5 .tf
6 .t.
7 ..f

*** Darwin 6x9 ***
Turn = 0.
  012345678
0 .........
1 .....f...
2 .........
3 ......t..
4 ......r..
5 .....r...

*** Darwin 4x9 ***
Turn = 0.
  012345678
0 ..fr.....
1 ...th.f..
2 .r.......
3 .........

Turn = 1.
  012345678
0 ..f.r....
1 .r.t..f..
2 ....h....
3 .........

Turn = 2.
  012345678
0 .rf..r...
1 ...t..f..
2 .........
3 ....h....

Turn = 3.
  012345678
0 .rf...r..
1 ...t..f..
2 .........
3 ....h....

Turn = 4.
  012345678
0 .r.....r.
1 ..rt..f..
2 .........
3 ....h....

*** Darwin 5x2 ***
Turn = 0.
  01
0 r.
1 .f
2 ht
3 rf
4 .t

Turn = 2.
  01
0 .r
1 .f
2 rt
3 rt
4 .t

Turn = 4.
  01
0 .r
1 .r
2 rr
3 rt
4 .t

*** Darwin 2x2 ***
Turn = 0.
  01
0 .f
1 r.

Turn = 3.
  01
0 rf
1 ..

*** Darwin 6x9 ***
Turn = 0.
  012345678
0 .......t.
1 ......f.r
2 .........
3 .........
4 .........
5 ....h...f

Turn = 2.
  012345678
0 .......t.
1 ......f..
2 ........r
3 ....h....
4 .........
5 ........f

Turn = 4.
  012345678
0 .......t.
1 ....h.f..
2 .........
3 .........
4 ........r
5 ........f

*** Darwin 3x6 ***
Turn = 0.
  012345
0 rr.t..
1 hf..h.
2 .th...

Turn = 2.
  012345
0 ..tth.
1 rfh...
2 tt....
