22

1 5
6
f 0 4 s
h 0 0 w
r 0 4 s
t 0 1 n
h 0 4 n
h 0 1 n
4 1

6 4
8
r 1 1 n
r 1 0 n
h 1 0 w
h 1 3 w
t 1 3 n
f 4 0 w
t 4 3 n
f 4 1 w
10 1

1 1
8
f 0 0 e
t 0 0 w
h 0 0 w
t 0 0 n
f 0 0 w
f 0 0 s
h 0 0 e
h 0 0 e
10 4

2 6
10
t 1 4 w
t 0 2 n
t 0 0 s
r 1 0 n
h 1 3 w
r 0 0 n
r 0 4 w
h 0 0 e
t 1 1 e
f 0 5 e
8 3

1 1
6
r 0 0 s
r 0 0 n
r 0 0 n
t 0 0 s
r 0 0 e
r 0 0 e
2 2

3 3
1
h 2 0 e
7 7

6 2
10
f 5 1 e
t 3 0 n
f 4 1 n
f 5 1 n
r 5 0 e
h 5 0 n
r 1 1 s
t 0 0 w
t 0 0 w
t 2 1 e
3 2

6 2
7
t 3 0 w
h 2 1 s
h 5 1 s
f 4 0 s
f 2 1 e
f 5 1 w
f 2 0 n
2 2

1 6
2
t 0 1 s
r 0 5 n
6 3

3 5
1
h 0 0 s
1 1

5 5
10
t 2 2 n
f 2 3 n
f 4 1 e
f 4 0 w
r 0 1 s
f 4 1 e
h 4 1 w
t 2 4 s
f 3 4 e
r 2 1 s
8 7

7 4
10
t 6 3 e
f 2 0 e
f 6 3 e
r 1 3 e
h 3 0 s
t 3 1 s
r 1 3 n
f 3 0 n
f 3 3 s
f 2 3 e
3 2

7 7
7
r 5 0 s
r 6 5 w
t 4 1 s
f 2 2 s
t 2 1 s
f 5 6 s
f 6 5 e
1 1

5 7
2
t 1 1 w
h 4 0 s
3 2

5 5
10
h 0 2 s
t 0 0 e
t 4 1 e
f 4 1 s
r 2 1 s
h 2 1 w
r 1 3 e
h 0 2 n
h 1 0 e
t 2 2 s
7 1

7 1
4
r 0 0 e
r 3 0 n
h 3 0 s
f 2 0 w
10 8

1 5
10
f 0 1 n
t 0 1 w
r 0 4 s
r 0 3 n
t 0 2 s
f 0 3 s
t 0 4 w
r 0 3 s
t 0 2 n
t 0 2 n
4 2

2 4
6
t 0 1 s
h 1 2 s
r 1 1 n
r 0 0 s
h 0 3 s
h 1 1 w
7 5

6 7
8
r 5 6 w
r 3 1 n
h 0 4 s
r 0 6 s
f 4 5 w
r 3 0 s
r 2 2 s
h 1 3 e
9 2

4 6
9
t 1 4 e
r 1 5 w
t 3 2 n
r 0 4 w
t 0 2 n
r 3 5 n
t 2 4 w
r 2 0 s
h 1 2 n
9 9

6 4
2
t 1 0 s
t 4 3 s
2 1

5 7
5
h 0 5 e
r 3 0 n
t 3 5 w
h 1 2 n
t 1 1 s
5 1
